10.86.28.6
10.86.28.7
10.86.28.8
10.86.28.9
10.86.28.10
10.86.28.11
10.86.28.12
10.86.28.13
10.86.28.14
10.86.28.15
10.86.28.16
10.86.28.17
10.86.28.18
10.86.28.19
10.86.28.20
10.86.28.21
10.86.28.22
10.86.28.23
10.86.28.24
10.86.28.25
10.86.28.26
10.86.28.27
10.86.28.28
10.86.28.29
10.86.28.30
10.86.28.31
10.86.28.32
10.86.28.33
10.86.28.34
10.86.28.35
10.86.28.36
10.86.28.37
10.86.28.38
10.86.28.39
10.86.28.40
10.86.28.41
10.86.28.42
10.86.28.43
10.86.28.44
10.86.28.45
10.86.28.46
10.86.28.47
10.86.28.48
10.86.28.49
10.86.28.50
10.86.28.51
10.86.28.52
10.86.28.53
10.86.28.54
10.86.28.55
10.86.28.56
10.86.28.57
10.86.28.58
10.86.28.59
10.86.28.60
10.86.28.61
10.86.28.62
10.86.28.63
10.86.28.64
10.86.28.65
10.86.28.66
10.86.28.67
10.86.28.68
10.86.28.69
10.86.28.70
10.86.28.71
10.86.28.72
10.86.28.73
10.86.28.74
10.86.28.75
10.86.28.76
10.86.28.77
10.86.28.78
10.86.28.79
10.86.28.80
10.86.28.81
10.86.28.82
10.86.28.83
10.86.28.84
10.86.28.85
10.86.28.86
10.86.28.87
10.86.28.88
10.86.28.89
10.86.28.90
10.86.28.91
10.86.28.92
10.86.28.93
10.86.28.94
10.86.28.95
10.86.28.96
10.86.28.97
10.86.28.98
10.86.28.99
10.86.28.100
10.86.28.101
10.86.28.102
10.86.28.103
10.86.28.104
10.86.28.105
10.86.28.106
10.86.28.107
10.86.28.108
10.86.28.109
10.86.28.110
10.86.28.111
10.86.28.112
10.86.28.113
10.86.28.114
10.86.28.115
10.86.28.116
10.86.28.117
10.86.28.118
10.86.28.119
10.86.28.120
10.86.28.121
10.86.28.122
10.86.28.123
10.86.28.124
10.86.28.125
10.86.28.126
10.86.28.127
10.86.28.128
10.86.28.129
10.86.28.130
10.86.28.131
11.86.28.132
11.86.28.133
10.86.28.134
10.86.28.135
10.86.28.136
10.86.28.137
10.86.28.138
10.86.28.139
10.86.28.140
10.86.28.141
10.86.28.142
10.86.28.143
10.86.28.144
10.86.28.145
10.86.28.146
10.86.28.147
10.86.28.148
10.86.28.149
10.86.28.150
10.86.28.151
10.86.28.152
10.86.28.153
10.86.28.154
10.86.28.155
10.86.28.156
10.86.28.157
10.86.28.158
10.86.28.159
10.86.28.160
10.86.28.161
10.86.28.162
10.86.28.163
10.86.28.164
10.86.28.165
10.86.28.166
10.86.28.167
10.86.28.168
10.86.28.169
10.86.28.170
10.86.28.171
10.86.28.172
10.86.28.173
10.86.28.174
10.86.28.175
10.86.28.176
10.86.28.177
10.86.28.178
10.86.28.179
10.86.28.180
10.86.28.181
10.86.28.182
10.86.28.183
10.86.28.185
10.86.28.186
10.86.28.187
10.86.28.188
10.86.28.189
10.86.28.190
10.86.28.191
10.86.28.192
10.86.28.193
10.86.28.194
10.86.28.195
10.86.28.196
10.86.28.197
10.86.28.198
10.86.28.199
10.86.28.200
10.86.28.201
10.86.28.202
10.86.28.203
10.86.28.204
10.86.28.205
10.86.28.206
10.86.28.207
10.86.28.208
10.86.28.209
10.86.28.210
10.86.28.211
10.86.28.212
10.86.28.213
10.86.28.214
10.86.28.215
10.86.28.216
10.86.28.217
10.86.28.218
10.86.28.219
10.86.28.220
10.86.28.221
10.86.28.222
10.86.28.223
10.86.28.224
10.86.28.225
10.86.28.226
10.86.28.227
10.86.28.228
10.86.28.229
10.86.28.230
10.86.28.231
10.86.28.232
10.86.28.233
10.86.28.234
10.86.28.235
10.86.28.236
10.86.28.237
10.86.28.238
10.86.28.239
10.86.28.240
10.86.28.241
10.86.28.242
10.86.28.243
10.86.28.244
10.86.28.245
10.86.28.246
10.86.28.247
10.86.28.248
10.86.28.249
10.86.28.250
10.86.28.251
10.86.28.252
10.86.28.253
10.86.28.254
10.86.28.255
10.86.29.0
10.86.29.1
10.86.29.2
10.86.29.3
10.86.29.4
10.86.29.5
10.86.29.6
10.86.29.7
10.86.29.8
10.86.29.9
10.86.29.10
10.86.29.11
10.86.29.12
10.86.29.13
10.86.29.14
10.86.29.15
10.86.29.16
10.86.29.17
10.86.29.18
10.86.29.19
10.86.29.20
10.86.29.21
10.86.29.22
10.86.29.23
10.86.29.24
10.86.29.25
10.86.29.26
10.86.29.27
10.86.29.28
10.86.29.29
10.86.29.30
10.86.29.31
10.86.29.32
10.86.29.33
10.86.29.34
10.86.29.35
10.86.29.36
10.86.29.37
10.86.29.38
10.86.29.39
10.86.29.40
10.86.29.41
10.86.29.42
10.86.29.43
10.86.29.44
10.86.29.45
10.86.29.46
10.86.29.47
10.86.29.48
10.86.29.49
10.86.29.50
10.86.29.51
10.86.29.52
10.86.29.53
10.86.29.54
10.86.29.55
10.86.29.56
10.86.29.57
10.86.29.58
10.86.29.59
10.86.29.60
10.86.29.61
10.86.29.62
10.86.29.63
10.86.29.64
10.86.29.65
10.86.29.66
10.86.29.67
10.86.29.68
10.86.29.69
10.86.29.70
10.86.29.71
10.86.29.72
10.86.29.73
10.86.28.161
10.86.29.74
10.86.29.75
10.86.29.76
10.86.29.77
10.86.29.78
10.86.29.79
10.86.29.80
10.86.29.81
10.86.29.82
10.86.29.83
10.86.29.84
10.86.29.85
10.86.29.86
10.86.29.87
10.86.29.88
10.86.29.89
10.86.29.90
10.86.29.91
10.86.29.92
10.86.29.93
10.86.29.94
10.86.29.95
10.86.29.96
10.86.29.97
10.86.29.98
10.86.29.99
10.86.29.100
10.86.29.101
10.86.29.102
10.86.29.103
10.86.29.104
10.86.29.105
10.86.29.106
10.86.29.107
10.86.29.108
10.86.29.109
10.86.29.110
10.86.29.111
10.86.29.112
10.86.29.113
10.86.29.114
10.86.29.115
10.86.29.116
10.86.29.117
10.86.29.118
10.86.29.119
10.86.29.120
10.86.29.121
10.86.29.122
10.86.29.123
10.86.29.124
10.86.29.125
10.86.29.126
10.86.29.127
10.86.29.128
10.86.29.129
10.86.29.130
10.86.29.131
10.86.29.132
10.86.29.133
10.86.29.134
10.86.29.135
10.86.29.136
10.86.29.137
10.86.29.138
10.86.29.139
10.86.29.140
10.86.29.141
10.86.29.142
10.86.29.143
10.86.29.144
10.86.29.145
10.86.29.146
10.86.29.147
10.86.29.148
10.86.29.149
10.86.29.150
10.86.29.151
10.86.29.152
10.86.29.153
10.86.29.154
10.86.29.155
10.86.29.156
10.86.29.157
10.86.29.158
10.86.29.159
10.86.29.160
10.86.29.161
10.86.29.162
10.86.29.163
10.86.29.164
10.86.29.165
10.86.29.166
10.86.29.167
10.86.29.168
10.86.29.169
10.86.29.170
10.86.29.171
10.86.29.172
10.86.29.173
10.86.29.174
10.86.29.175
10.86.29.176
10.86.29.177
10.86.29.178
10.86.29.179
10.86.29.180
10.86.29.181
10.86.29.182
10.86.29.183
10.86.29.184
10.86.29.185
10.86.29.186
10.86.29.187
10.86.29.188
10.86.29.189
10.86.29.190
10.86.29.191
10.86.29.192
10.86.29.193
10.86.29.194
10.86.29.195
10.86.29.196
10.86.29.197
10.86.29.198
10.86.29.199
10.86.29.200
10.86.29.201
10.86.29.202
10.86.29.203
10.86.29.204
10.86.29.205
10.86.29.206
10.86.29.207
10.86.29.208
10.86.29.209
10.86.29.210
10.86.29.211
10.86.29.212
10.86.29.213
10.86.29.214
10.86.29.215
10.86.29.216
10.86.29.217
10.86.29.218
10.86.29.219
10.86.29.220
10.86.29.221
10.86.29.222
10.86.29.223
10.86.29.224
10.86.29.225
10.86.29.226
10.86.29.227
10.86.29.228
10.86.29.229
10.86.29.230
10.86.29.231
10.86.29.232
10.86.29.233
10.86.29.234
10.86.29.235
10.86.29.236
10.86.29.237
10.86.29.238
10.86.29.239
10.86.29.240
10.86.29.241
10.86.29.242
10.86.29.243
10.86.29.244
10.86.29.245
10.86.29.246
10.86.29.247
10.86.29.248
10.86.29.249
10.86.29.250
10.86.29.251
10.86.29.252
 10.86.29.253
10.86.29.254
10.86.29.255
10.86.30.0
10.86.30.1
10.86.30.2
10.86.30.3
10.86.30.4
10.86.30.5
10.86.30.6
10.86.30.7
10.86.30.8
10.86.30.9
10.86.30.10
10.86.30.11
10.86.30.12
10.86.30.13
10.86.30.14
10.86.30.15
10.86.30.16
10.86.30.17
10.86.30.18
10.86.30.19
10.86.30.20
10.86.30.21
10.86.30.22
10.86.30.23
10.86.30.24
10.86.30.25
10.86.30.26
10.86.30.27
10.86.30.28
10.86.30.29
10.86.30.30
10.86.30.31
10.86.30.32
10.86.30.33
10.86.30.34
10.86.30.35
10.86.30.36
10.86.30.37
10.86.30.38
10.86.30.39
10.86.30.40
10.86.30.41
10.86.30.42
10.86.30.43
10.86.30.44
10.86.30.45
10.86.30.46
10.86.30.47
10.86.30.48
10.86.30.49
10.86.30.50
10.86.30.51
10.86.30.52
10.86.30.53
10.86.30.54
10.86.30.55
10.86.30.56
10.86.30.57
10.86.30.58
10.86.30.59
10.86.30.60
10.86.30.61
10.86.30.62
10.86.30.63
10.86.30.64
10.86.30.65
10.86.30.66
10.86.30.67
10.86.30.68
10.86.30.69
10.86.30.70
10.86.30.71
10.86.30.72
10.86.30.73
10.86.30.74
10.86.30.75
10.86.30.76
10.86.30.77
10.86.30.78
10.86.30.79
10.86.30.80
10.86.30.81
10.86.30.82
10.86.30.83
10.86.30.84
10.86.30.85
10.86.30.86
10.86.30.87
10.86.30.88
10.86.30.89
10.86.30.90
10.86.30.91
10.86.30.92
10.86.30.93
10.86.30.94
10.86.30.95
10.86.30.96
10.86.30.97
10.86.30.98
10.86.30.99
10.86.30.100
10.86.30.101
10.86.30.102
10.86.30.103
10.86.30.104
10.86.30.105
10.86.30.106
10.86.30.107
10.86.30.108
10.86.30.109
10.86.30.110
10.86.30.111
10.86.30.112
10.86.30.113
10.86.30.114
10.86.30.115
10.86.30.116
10.86.30.117
10.86.30.118
10.86.30.119
10.86.30.120
10.86.30.121
10.86.30.122
10.86.30.123
10.86.30.124
10.86.30.125
10.86.30.126
10.86.30.127
10.86.30.128
10.86.30.129
10.86.30.130
10.86.30.131
10.86.30.132
10.86.30.133
10.86.30.134
10.86.30.135
10.86.30.136
10.86.30.137
10.86.30.138
10.86.30.139
10.86.30.140
10.86.30.141
10.86.30.142
10.86.30.143
10.86.30.144
10.86.30.145
10.86.30.146
10.86.30.147
10.86.30.148
10.86.30.149
10.86.30.150
10.86.30.151
10.86.30.152
10.86.30.153
10.86.30.154
10.86.30.155
10.86.30.156
10.86.30.157
10.86.30.158
10.86.30.159
10.86.30.160
10.86.30.161
10.86.30.162
10.86.30.163
10.86.30.164
10.86.30.165
10.86.30.166
10.86.30.167
10.86.30.168
10.86.30.169
10.86.30.170
10.86.30.171
10.86.30.172
10.86.30.173
10.86.30.174
10.86.30.175
10.86.30.176
10.86.30.177
10.86.30.178
10.86.30.179
10.86.30.180
10.86.30.181
10.86.30.182
10.86.30.183
10.86.30.184
10.86.30.185
10.86.30.186
10.86.30.187
10.86.30.188
10.86.30.189
10.86.30.190
10.86.30.191
10.86.30.192
10.86.30.193
10.86.30.194
10.86.30.195
10.86.30.196
10.86.30.197
10.86.30.198
10.86.30.199
10.86.30.200
10.86.30.201
10.86.30.202
10.86.30.203
10.86.30.204
10.86.30.205
10.86.30.206
10.86.30.207
10.86.30.208
10.86.30.209
10.86.30.210
10.86.30.211
10.86.30.212
10.86.30.213
10.86.30.214
10.86.30.215
10.86.30.216
10.86.30.217
10.86.30.218
10.86.30.219
10.86.30.220
10.86.30.221
10.86.30.222
10.86.30.223
10.86.30.224
10.86.30.225
10.86.30.226
10.86.30.227
10.86.30.228
10.86.30.229
10.86.30.230
10.86.30.231
10.86.30.232
10.86.30.233
10.86.30.234
10.86.30.235
10.86.30.236
10.86.30.237
10.86.30.238
10.86.30.239
10.86.30.240
10.86.30.241
10.86.30.242
10.86.30.243
10.86.30.244
10.86.30.245
10.86.30.246
10.86.30.247
10.86.30.248
10.86.30.249
10.86.30.250
10.86.30.251
10.86.30.252
10.86.30.253
10.86.30.254
10.86.30.255
10.86.31.0
10.86.31.1
10.86.31.2
10.86.31.3
10.86.31.4
10.86.31.5
10.86.31.6
10.86.31.7
10.86.31.8
10.86.31.9
10.86.31.10
10.86.31.11
10.86.31.12
10.86.31.13
10.86.31.14
10.86.31.15
10.86.31.16
10.86.31.17
10.86.31.18
10.86.31.19
10.86.31.20
10.86.31.21
10.86.31.22
10.86.31.23
10.86.31.24
10.86.31.25
10.86.31.26
10.86.31.27
10.86.31.28
10.86.31.29
10.86.31.30
10.86.31.31
10.86.31.32
10.86.31.33
10.86.31.34
10.86.31.35
10.86.31.36
10.86.31.37
10.86.31.38
10.86.31.39
10.86.31.40
10.86.31.41
10.86.31.42
10.86.31.43
10.86.31.44
10.86.31.45
10.86.31.46
10.86.31.47
10.86.31.48
10.86.31.49
10.86.31.50
10.86.31.51
10.86.31.52
10.86.31.53
10.86.31.54
10.86.31.55
10.86.31.56
10.86.31.57
10.86.31.58
10.86.31.59
10.86.31.60
10.86.31.61
10.86.31.62
10.86.31.63
10.86.31.64
10.86.31.65
10.86.31.66
10.86.31.67
10.86.31.68
10.86.31.69
10.86.31.70
10.86.31.71
10.86.31.72
10.86.31.73
10.86.31.74
10.86.31.75
10.86.31.76
10.86.31.77
10.86.31.78
10.86.31.79
10.86.31.80
10.86.31.81
10.86.31.82
10.86.31.83
10.86.31.84
10.86.31.85
10.86.31.86
10.86.31.87
10.86.31.88
10.86.31.89
10.86.31.90
10.86.31.91
10.86.31.92
10.86.31.93
10.86.31.94
10.86.31.95
10.86.31.96
10.86.31.97
10.86.31.98
10.86.31.99
10.86.31.100
10.86.31.101
10.86.31.102
10.86.31.103
10.86.31.104
10.86.31.105
10.86.31.106
10.86.31.107
10.86.31.108
10.86.31.109
10.86.31.110
10.86.31.111
10.86.31.112
10.86.31.113
10.86.31.114
10.86.31.115
10.86.31.116
10.86.31.117
10.86.31.118
10.86.31.119
10.86.31.120
10.86.31.121
10.86.31.122
10.86.31.123
10.86.31.124
10.86.31.125
10.86.31.126
10.86.31.127
10.86.31.128
10.86.31.129
10.86.31.130
10.86.31.131
10.86.31.132
10.86.31.134
10.86.31.135
10.86.31.136
10.86.31.133
10.86.31.137
10.86.31.138
10.86.31.139
10.86.31.140
10.86.31.141
10.86.31.142
10.86.31.143
10.86.31.144
10.86.31.145
10.86.31.146
10.86.31.147
10.86.31.148
10.86.31.149
10.86.31.150
10.86.31.151
10.86.31.152
10.86.31.153
10.86.31.154
10.86.31.155
10.86.31.156
10.86.31.157
10.86.31.158
10.86.31.159
10.86.31.160
10.86.31.161
10.86.31.162
10.86.31.163
10.86.31.164
10.86.31.165
10.86.31.166
10.86.31.167
10.86.31.168
10.86.31.169
10.86.31.170
10.86.31.171
10.86.31.172
10.86.31.173
10.86.31.174
10.86.31.175
10.86.31.176
10.86.31.177
10.86.31.178
10.86.31.179
10.86.31.180
10.86.31.181
10.86.31.182
10.86.31.183
10.86.31.184
10.86.31.185
10.86.31.186
10.86.31.187
10.86.31.188
10.86.31.189
10.86.31.190
10.86.31.191
10.86.31.192
10.86.31.193
10.86.31.194
10.86.31.195
10.86.31.196
10.86.31.197
10.86.31.198
10.86.31.199
10.86.31.200
10.86.31.201
10.86.31.202
10.86.31.203
10.86.31.204
10.86.31.205
10.86.31.206
10.86.31.207
10.86.31.208
10.86.31.209
10.86.31.210
10.86.31.211
10.86.31.212
10.86.31.213
10,86,31,214
10.86.31.215
10.86.31.216
10.86.31.217
10.86.31.218
10.86.31.219
10.86.31.220
10.86.31.221
10.86.31.222
10.86.31.223
10.86.31.224
10.86.31.225
10.86.31.226
10.86.31.227
10.86.31.228
10.86.31.229
10.86.31.230
10.86.31.231
10.86.31.232
10.86.31.233
10.86.31.234
10.86.31.235
10.86.31.236
10.86.31.237
10.86.31.238
10.86.31.239
10.86.31.240
10.86.31.241
10.86.31.242
10.86.31.243
10.86.31.244
10.86.31.245
10.86.31.246
10.86.31.247
10.86.31.248
10.86.31.249
10.86.31.250
10.86.31.251
10.86.31.252
10.86.31.253
10.86.31.254
10.86.31.255
